module book-crawler

go 1.14

require (
	github.com/BurntSushi/toml v0.3.1 // indirect
	github.com/Joker/jade v1.0.0 // indirect
	github.com/PuerkitoBio/goquery v1.5.1 // indirect
	github.com/Shopify/goreferrer v0.0.0-20181106222321-ec9c9a553398 // indirect
	github.com/ajg/form v1.5.1 // indirect
	github.com/antchfx/htmlquery v1.2.2 // indirect
	github.com/antchfx/xmlquery v1.2.3 // indirect
	github.com/antchfx/xpath v1.1.5 // indirect
	github.com/axgle/mahonia v0.0.0-20180208002826-3358181d7394
	github.com/aymerick/raymond v2.0.2+incompatible // indirect
	github.com/eknkc/amber v0.0.0-20171010120322-cdade1c07385 // indirect
	github.com/fatih/structs v1.1.0 // indirect
	github.com/flosch/pongo2 v0.0.0-20190707114632-bbf5a6c351f4 // indirect
	github.com/gavv/monotime v0.0.0-20190418164738-30dba4353424 // indirect
	github.com/go-sql-driver/mysql v1.5.0
	github.com/gobwas/glob v0.2.3 // indirect
	github.com/gocolly/colly v1.2.0
	github.com/golang/groupcache v0.0.0-20200121045136-8c9f03a8e57e // indirect
	github.com/google/go-querystring v1.0.0 // indirect
	github.com/gorilla/schema v1.1.0 // indirect
	github.com/imkira/go-interpol v1.1.0 // indirect
	github.com/iris-contrib/blackfriday v2.0.0+incompatible // indirect
	github.com/iris-contrib/formBinder v5.0.0+incompatible // indirect
	github.com/iris-contrib/go.uuid v2.0.0+incompatible // indirect
	github.com/iris-contrib/httpexpect v0.0.0-20180314041918-ebe99fcebbce // indirect
	github.com/json-iterator/go v1.1.9 // indirect
	github.com/k0kubun/colorstring v0.0.0-20150214042306-9440f1994b88 // indirect
	github.com/kataras/golog v0.0.10 // indirect
	github.com/kataras/iris v11.1.1+incompatible
	github.com/kennygrant/sanitize v1.2.4 // indirect
	github.com/klauspost/compress v1.10.4 // indirect
	github.com/mattn/go-colorable v0.1.6 // indirect
	github.com/microcosm-cc/bluemonday v1.0.2 // indirect
	github.com/moul/http2curl v1.0.0 // indirect
	github.com/onsi/ginkgo v1.12.0 // indirect
	github.com/onsi/gomega v1.9.0 // indirect
	github.com/ryanuber/columnize v2.1.0+incompatible // indirect
	github.com/saintfish/chardet v0.0.0-20120816061221-3af4cd4741ca // indirect
	github.com/sergi/go-diff v1.1.0 // indirect
	github.com/shurcooL/sanitized_anchor_name v1.0.0 // indirect
	github.com/smartystreets/goconvey v1.6.4 // indirect
	github.com/temoto/robotstxt v1.1.1 // indirect
	github.com/xeipuuv/gojsonschema v1.2.0 // indirect
	github.com/yalp/jsonpath v0.0.0-20180802001716-5cc68e5049a0 // indirect
	github.com/yudai/gojsondiff v1.0.0 // indirect
	github.com/yudai/golcs v0.0.0-20170316035057-ecda9a501e82 // indirect
	github.com/yudai/pp v2.0.1+incompatible // indirect
	golang.org/x/crypto v0.0.0-20200406173513-056763e48d71 // indirect
	google.golang.org/appengine v1.6.5 // indirect
	gopkg.in/yaml.v2 v2.2.8 // indirect
)
